DV4
…
tv_ratings <- read_csv("https://raw.githubusercontent.com/vaiseys/dav-course/main/Data/tv_ratings.csv")

Rows: 2266 Columns: 7
── Column specification ────────────────────────────────────────────────────────
Delimiter: ","
chr  (3): titleId, title, genres
dbl  (3): seasonNumber, av_rating, share
date (1): date

ℹ Use `spec()` to retrieve the full column specification for this data.
ℹ Specify the column types or set `show_col_types = FALSE` to quiet this message.

tv_ratings

# A tibble: 2,266 × 7
   titleId   seasonNumber title          date       av_rating share genres      
   <chr>            <dbl> <chr>          <date>         <dbl> <dbl> <chr>       
 1 tt2879552            1 11.22.63       2016-03-10      8.49  0.51 Drama,Myste…
 2 tt3148266            1 12 Monkeys     2015-02-27      8.34  0.46 Adventure,D…
 3 tt3148266            2 12 Monkeys     2016-05-30      8.82  0.25 Adventure,D…
 4 tt3148266            3 12 Monkeys     2017-05-19      9.04  0.19 Adventure,D…
 5 tt3148266            4 12 Monkeys     2018-06-26      9.14  0.38 Adventure,D…
 6 tt1837492            1 13 Reasons Why 2017-03-31      8.44  2.38 Drama,Myste…
 7 tt1837492            2 13 Reasons Why 2018-05-18      7.51  2.19 Drama,Myste…
 8 tt0285331            1 24             2002-02-16      8.56  6.67 Action,Crim…
 9 tt0285331            2 24             2003-02-09      8.70  7.13 Action,Crim…
10 tt0285331            3 24             2004-02-09      8.72  5.88 Action,Crim…
# ℹ 2,256 more rows
…
First, because the genres names are so convoluted, I am going to classify everything that includes the word “Comedy” as a comedy.

comedies_dramas <- tv_ratings %>% 
  mutate(is_comedy = if_else(str_detect(genres, "Comedy"), 
                             1, 
                             0)) %>% 
  filter(is_comedy == 1 | genres == "Drama") %>% 
  mutate(genres = if_else(genres == "Drama", 
                          "Drama", 
                          "Comedy"))

comedies_dramas

# A tibble: 684 × 8
   titleId   seasonNumber title      date       av_rating share genres is_comedy
   <chr>            <dbl> <chr>      <date>         <dbl> <dbl> <chr>      <dbl>
 1 tt0312081            1 8 Simple … 2002-09-17      7.5   0.03 Comedy         1
 2 tt0312081            2 8 Simple … 2003-11-04      8.6   0.1  Comedy         1
 3 tt0312081            3 8 Simple … 2004-11-12      8.40  0.06 Comedy         1
 4 tt1225901            1 90210      2009-01-03      7.17  0.4  Comedy         1
 5 tt1225901            2 90210      2009-11-10      7.47  0.14 Comedy         1
 6 tt1225901            3 90210      2010-12-04      7.69  0.1  Comedy         1
 7 tt1225901            4 90210      2011-12-01      6.83  0.04 Comedy         1
 8 tt1225901            5 90210      2013-01-24      7.65  0.01 Comedy         1
 9 tt4834206            1 A Series … 2017-01-13      8.11  0.48 Comedy         1
10 tt4834206            2 A Series … 2018-03-30      8.29  0.48 Comedy         1
# ℹ 674 more rows
…
