DV5
…
wncaa <- read_csv("https://raw.githubusercontent.com/vaiseys/dav-course/main/Data/wncaa.csv")

Rows: 2092 Columns: 19
── Column specification ────────────────────────────────────────────────────────
Delimiter: ","
chr  (6): school, conference, conf_place, how_qual, x1st_game_at_home, tourn...
dbl (13): year, seed, conf_w, conf_l, conf_percent, reg_w, reg_l, reg_percen...

ℹ Use `spec()` to retrieve the full column specification for this data.
ℹ Specify the column types or set `show_col_types = FALSE` to quiet this message.

wncaa

# A tibble: 2,092 × 19
    year school      seed conference conf_w conf_l conf_percent conf_place reg_w
   <dbl> <chr>      <dbl> <chr>       <dbl>  <dbl>        <dbl> <chr>      <dbl>
 1  1982 Arizona S…     4 Western C…     NA     NA         NA   -             23
 2  1982 Auburn         7 Southeast…     NA     NA         NA   -             24
 3  1982 Cheyney        2 Independe…     NA     NA         NA   -             24
 4  1982 Clemson        5 Atlantic …      6      3         66.7 4th           20
 5  1982 Drake          4 Missouri …     NA     NA         NA   -             26
 6  1982 East Caro…     6 Independe…     NA     NA         NA   -             19
 7  1982 Georgia        5 Southeast…     NA     NA         NA   -             21
 8  1982 Howard         8 Mid-Easte…     NA     NA         NA   -             14
 9  1982 Illinois       7 Big Ten        NA     NA         NA   -             21
10  1982 Jackson S…     7 Southwest…     NA     NA         NA   -             28
# ℹ 2,082 more rows
# ℹ 10 more variables: reg_l <dbl>, reg_percent <dbl>, how_qual <chr>,
#   x1st_game_at_home <chr>, tourney_w <dbl>, tourney_l <dbl>,
#   tourney_finish <chr>, full_w <dbl>, full_l <dbl>, full_percent <dbl>
…
 [1] "Louisiana Tech"      "Southern California" "Old Dominion"       
 [4] "Texas"               "Tennessee"           "Stanford"           
 [7] "Texas Tech"          "North Carolina"      "UConn"              
[10] "Purdue"              "Notre Dame"          "Baylor"             
[13] "Maryland"            "Texas A&M"           "South Carolina"     

Now, we filter our original name so that only these schools are included.

winners <- wncaa %>% 
  filter(school %in%  champ_names)

winners

# A tibble: 368 × 19
    year school      seed conference conf_w conf_l conf_percent conf_place reg_w
   <dbl> <chr>      <dbl> <chr>       <dbl>  <dbl>        <dbl> <chr>      <dbl>
 1  1982 Louisiana…     1 Independe…     NA     NA         NA   -             30
 2  1982 Maryland       2 Atlantic …      6      1         85.7 1st           22
 3  1982 Old Domin…     1 Independe…     NA     NA         NA   -             21
 4  1982 South Car…     3 Independe…     NA     NA         NA   -             21
 5  1982 Southern …     1 Western C…     NA     NA         NA   -             20
 6  1982 Stanford       7 Northern …      9      3         75   2nd           19
 7  1982 Tennessee      2 Southeast…     NA     NA         NA   -             19
 8  1983 Louisiana…     1 Independe…     NA     NA         NA   -             27
 9  1983 Maryland       3 Atlantic …     10      3         76.9 T2nd          25
10  1983 North Car…     7 Atlantic …     10      3         76.9 T2nd          22
# ℹ 358 more rows
# ℹ 10 more variables: reg_l <dbl>, reg_percent <dbl>, how_qual <chr>,
#   x1st_game_at_home <chr>, tourney_w <dbl>, tourney_l <dbl>,
#   tourney_finish <chr>, full_w <dbl>, full_l <dbl>, full_percent <dbl>
…
