DV 1-3
…
Many of the ideas in these chapters were already familiar to you but this is an opportunity to go deeper and really understand how the machinery of ggplot works. We are going to be working with a data-set from the causact package that contains information about the Human Development Index (HDI) and Corruption Index (CPI) for different countries in 2017. Begin by installing the package running install.packages("causact").

install.packages("causact", repos = "http://cran.us.r-project.org")

The downloaded binary packages are in
    /var/folders/fq/jtj_47rn4092fccg3jy8yk3w0000gn/T//Rtmp3pdHjP/downloaded_packages

Load the package and glimpse the data-set:

library(causact)

corruptDF

# A tibble: 174 × 7
   country     region          countryCode regionCode population CPI2017 HDI2017
   <chr>       <chr>           <chr>       <chr>           <int>   <int>   <dbl>
 1 Afghanistan Asia Pacific    AFG         AP           35530081      15   0.498
 2 Albania     East EU Cemt A… ALB         ECA           2873457      38   0.785
 3 Algeria     MENA            DZA         MENA         41318142      33   0.754
 4 Angola      SSA             AGO         SSA          29784193      19   0.581
 5 Argentina   Americas        ARG         AME          44271041      39   0.825
 6 Armenia     East EU Cemt A… ARM         ECA           2930450      35   0.755
 7 Australia   Asia Pacific    AUS         AP           24598933      77   0.939
 8 Austria     EU W. Europe    AUT         WE/EU         8809212      75   0.908
 9 Azerbaijan  East EU Cemt A… AZE         ECA           9862429      31   0.757
10 Bahamas     Americas        BHS         AME            395361      65   0.807
# ℹ 164 more rows
…
