MD5
…
twitch_data_1 <- read_csv("https://raw.githubusercontent.com/vaiseys/dav-course/main/Data/twitchdata-update.csv")

Rows: 1000 Columns: 11
── Column specification ────────────────────────────────────────────────────────
Delimiter: ","
chr (2): Channel, Language
dbl (7): Watch time(Minutes), Stream time(minutes), Peak viewers, Average vi...
lgl (2): Partnered, Mature

ℹ Use `spec()` to retrieve the full column specification for this data.
ℹ Specify the column types or set `show_col_types = FALSE` to quiet this message.

twitch_data_1

# A tibble: 1,000 × 11
   Channel    `Watch time(Minutes)` `Stream time(minutes)` `Peak viewers`
   <chr>                      <dbl>                  <dbl>          <dbl>
 1 xQcOW                 6196161750                 215250         222720
 2 summit1g              6091677300                 211845         310998
 3 Gaules                5644590915                 515280         387315
 4 ESL_CSGO              3970318140                 517740         300575
 5 Tfue                  3671000070                 123660         285644
 6 Asmongold             3668799075                  82260         263720
 7 NICKMERCS             3360675195                 136275         115633
 8 Fextralife            3301867485                 147885          68795
 9 loltyler1             2928356940                 122490          89387
10 Anomaly               2865429915                  92880         125408
# ℹ 990 more rows
# ℹ 7 more variables: `Average viewers` <dbl>, Followers <dbl>,
#   `Followers gained` <dbl>, `Views gained` <dbl>, Partnered <lgl>,
#   Mature <lgl>, Language <chr>
…
Now, it’s your turn. Take the coefficient from your model and interpret it in this way.

1.10.5885=1.05769

A 10% increase in followers corresponds with a 5.8% increase in the average number of viewers.

Question 3

Okay, now let’s look at our line of best fit and check the residuals. I am again going to introduce you to an incredibly useful tool from the broom package called augment. Run the following code:

pred_data <- augment(fit1)

pred_data

# A tibble: 1,000 × 8
   log_viewers log_followers .fitted .resid    .hat .sigma  .cooksd .std.resid
         <dbl>         <dbl>   <dbl>  <dbl>   <dbl>  <dbl>    <dbl>      <dbl>
 1        4.44          6.51    4.03  0.413 0.00619  0.309 0.00561       1.34 
 2        4.41          6.73    4.16  0.253 0.00869  0.309 0.00297       0.823
 3        4.04          6.25    3.87  0.166 0.00378  0.309 0.000551      0.539
 4        3.89          6.60    4.08 -0.192 0.00713  0.309 0.00140      -0.625
 5        4.47          6.95    4.29  0.183 0.0119   0.309 0.00213       0.595
 6        4.63          6.19    3.84  0.784 0.00339  0.308 0.0110        2.55 
 7        4.38          6.61    4.09  0.296 0.00729  0.309 0.00339       0.961
 8        4.28          5.71    3.56  0.722 0.00117  0.308 0.00322       2.34 
 9        4.35          6.55    4.05  0.299 0.00659  0.309 0.00312       0.971
10        4.09          6.42    3.97  0.119 0.00524  0.309 0.000393      0.386
# ℹ 990 more rows
…
How is my prediction doing?

As a reminder, the language of reference is English. Any positive coefficient for channels of another language indicates how many more average viewers that language has relative to English channels.

With that said, Russian, Spanish, and Arabic channels all have positive coefficients, which implies that — if the baseline of viewership for English channels is 5,113 — channels of these other languages had 1,481, 1,337, and 569 (respectively) more average viewers than that. Thus, the original prediction is perhaps not as accurate as one would have thought.

Question 6

Explore the residuals here using a similar plot as above.

pred_data_2 <- augment(fit2)

pred_data_2

# A tibble: 1,000 × 8
   average_viewers language   .fitted .resid    .hat .sigma   .cooksd .std.resid
             <dbl> <fct>        <dbl>  <dbl>   <dbl>  <dbl>     <dbl>      <dbl>
 1           27716 English      5113. 22603. 0.00206  8444.   7.02e-4      2.67 
 2           25610 English      5113. 20497. 0.00206  8450.   5.77e-4      2.42 
 3           10976 Portuguese   3801.  7175. 0.0164   8472.   5.79e-4      0.854
 4            7714 English      5113.  2601. 0.00206  8475.   9.30e-6      0.307
 5           29602 English      5113. 24489. 0.00206  8439.   8.24e-4      2.89 
 6           42414 English      5113. 37301. 0.00206  8391.   1.91e-3      4.41 
 7           24181 English      5113. 19068. 0.00206  8453.   5.00e-4      2.25 
 8           18985 English      5113. 13872. 0.00206  8464.   2.64e-4      1.64 
 9           22381 English      5113. 17268. 0.00206  8457.   4.10e-4      2.04 
10           12377 English      5113.  7264. 0.00206  8472.   7.25e-5      0.858
# ℹ 990 more rows
…
